,,,,,,,,,,,
,"fischerbso36@gmail.com","Barbara Fischer",,"We are at climate strike in front of Bundestag in Berlin since Sep 14 2019.","Germany","Berlin","In front of townhall","from 10:00 to 12:00","2018-09-14","Every Friday","https://www.facebook.com/events/304104456969655/"
100062,"@Nikkido11","Dominique",,,"Germany","Leipzig",,,"2018-11-30","once only",
100063,,"Katja Klingeberg",,,"Germany","Berlin",,,"2018-11-30","once only",
"12/12/2018 10:14:00","arne.eichberg@gmx.de","Arne Eichberg",,,"Germany","Kiel","in front of Landtag","08.00 - 12.00","2018-11-30","Once only","https://www.facebook.com/events/312740896001304/"
"12/13/2018 16:18:22","lena.beier@gjm.de","Lena Beier",,,"Germany","Munich","Max-Weber-Platz","10:00-12:00","2018-11-30","Once only","https://www.facebook.com/events/596198400815710/"
"12/13/2018 16:38:14","lydia@rosie-rolls.de","Grüne jugend",,,"Germany","Munich","Max-joseph platz","10:00-12:00","2018-11-30","Once only","https://www.facebook.com/events/596198400815710/"
"1/3/2019 22:47:44","dominique.swoboda@t-online.de","Dominique Swoboda ",,,"Germany","Bad Segeberg","Marketplace , Bad Segeberg","8:30 - 12:00","2018-12-07","Weekly",
100087,,,,,"Germany","Aachen",,,"2018-12-14","once only",
100088,,,,,"Germany","Göttingen",,,"2018-12-14","once only",
100089,,,,,"Germany","Hamburg",,,"2018-12-14","once only",
100090,,,,,"Germany","Ingolstadt",,,"2018-12-14","once only",
100091,,,,,"Germany","Karlsruhe",,,"2018-12-14","once only",
100092,,,,,"Germany","Cologne",,,"2018-12-14","once only",
100093,,,,,"Germany","Landau",,,"2018-12-14","once only",
100094,,,,,"Germany","Osnabrück",,,"2018-12-14","once only",
"12/22/2018 16:19:46","fridaysforfutureos@gmail.com","Jan Küter-Luks",,,"Germany","Osnabrück","In front of townhall","08.00 - 14.00","2018-12-14","Weekly","https://www.instagram.com/fridaysforfuture_os/?hl=de"
"12/20/2018 22:08:15","villalotta@web.de","Nina Langner",,,"Germany","Düsseldorf","Landtag","Kl. 12.00-13.00","2018-12-21","Weekly","https://www.facebook.com/fridaysforfutureduesseldorf"
"12/22/2018 15:23:50","st148072@stud.uni-stuttgart.de","Yvonne Sauter",,,"Germany","Stuttgart","In front of townhall","11.00-13.00","2018-12-28","Weekly","@fridaysforfuturestuttgart"
"2/12/2019 20:53:22","Nando.Spicker@gmx.de","Nando Spicker",,,"Germany","Münster","In front of townhall","First Friday of the month: 10:00 big demonstration, other fridays: 14:00","2018-12-28","Every Friday","https://www.facebook.com/fridaysforfuturemuenster/"
"1/7/2019 22:07:11","emmi.marie99@gmail.com","Johanna",,,"Germany","Jena","In front of townhall","8.00-10.00","2019-01-11","Once only",
"1/11/2019 15:31:51","Wuerzburg@fridaysforfuture.de","Mathilda Knorpp",,,"Germany","Würzburg","Main station (Hauptbahnhof)","11-13","2019-01-18","Once only","https://www.facebook.com/events/565184143947409/?ti=as"
"1/14/2019 20:47:38","liebaldjulia@gmail.com","Julia Liebald",,,"Germany","Kempten","In front of school","10:30","2019-01-18","Once only",
"1/16/2019 20:53:10","vivi.kiwi2002@gmail.com","Paulikittner@live.de",,,"Germany","Leipzig","In front of townhall","Kl. 12.00-13.00","2019-01-18","Once only",
"1/8/2019 20:07:33","vollmilchxx@web.de","Sanne",,,"Germany","Saarbrücken","Start: St. Johanner Markt (9.30h) , Kundgebung Europa Galerie (10.30h)","9.30-13.00","2019-01-18","Once only","https://fridaysforfuture.de/18januar/"
"1/22/2019 22:22:21","admin@fridaysforfuture.de","Johanna Marie Bergmeier",,,"Germany","Berlin","start: Invalidenstraße 48","12:00-16:00","2019-01-25","Once only","https://fridaysforfuture.de/25januar/"
"2/2/2019 17:51:49","dudelladelia@web.de","Delia Dudella",,,"Germany","Moers","In front of townhall","At 12.00-13.00 (noon to 1pm)","2019-02-02","Monthly",
"2/6/2019 20:23:53","oe.celik@gmx.de","Özgür Celik",,,"Germany","Böblingen","In front of townhall","At 12.00-13.00 (noon to 1pm)","2019-02-08","Weekly",
"2/6/2019 22:17:06","alisa.draken@gmail.com","Alisa",,,"Germany","Düsseldorf","Route vom Rathaus bis zum Landtag in Düsseldorf ","12:30:00 PM","2019-02-08","Once only","http://fridaysforfuture.de/streiktermine/"
"2/7/2019 19:17:01","fff.dessau@gmail.com","Paul Nolte ",,,"Germany","Dessau, Dessau-Roßlau","Rathausplatz","12:30:00 PM","2019-02-08","Once only","http://fridaysforfuture.de/streiktermine/"
"2/7/2019 19:24:10","boetjerp@gmail.com","Pia, Caro, Jakob",,,"Germany","Hildesheim","Marktplatz ","12:30:00 PM","2019-02-08","Once only","http://fridaysforfuture.de/streiktermine/"
"2/8/2019 11:05:29","fridaysforfuture.leipzig@gmail.de","Ita Weinrich ",,,"Germany","Leipzig","Richard Wagner Platz","2:00:00 PM","2019-02-08","Once only","http://fridaysforfuture.de/streiktermine/"
"2/6/2019 10:09:38","samuel.kraemer@mailbox.org","Sam",,"I'm a student and 28 years old","Germany","Aachen","Elisenbrunnen","10.00-13.00","2019-02-09","Every Friday","https://chat.whatsapp.com/LpmhxlI8fCyDDT0TBU54PP"
"2/7/2019 18:39:24","viet.nguyen@umlauf.de","Viet Hoang Nguyen ",,"Other Co-Spokespersons are Lea Moser and Julia Schminke from Kassel (also logged in this Google Docs) ","Germany","Kassel","In front of townhall","In the one first and third Friday of the mounth at 11-13 am, the other Fridays at 3-5pm ","2019-02-09","Every Friday",
"2/10/2019 11:37:28","Jena@FridaysforFuture.de","Johanna",,,"Germany","Jena","Start: Holzmarkt","12:00:00 PM","2019-02-15","Once only","http://fridaysforfuture.de/streiktermine/"
"2/10/2019 17:41:54","alisa.draken@gmail.com","Alisa",,,"Germany","Düsseldorf","Rathaus Düsseldorf bis zum Landtag","11:00:00 AM","2019-02-15","Once only","http://fridaysforfuture.de/streiktermine/"
"2/10/2019 19:02:23","cara.speer@jupa-wiesbaden.de","Cara",,,"Germany","Wiesbaden","Wiesbaden Hauptbahnhof","12:00:00 PM","2019-02-15","Once only","http://fridaysforfuture.de/streiktermine/"
"2/11/2019 10:57:38","maximilianboettcher2001@gmail.com","Maximilian Böttcher",,,"Germany","Schleswig","24837 Schleswig","9:00:00 AM","2019-02-15","Once only","http://fridaysforfuture.de/streiktermine/"
"2/11/2019 11:05:39","emmi.marie99@gmail.com","Johanna",,,"Germany","Jena","Start: Holzmarkt","12:00:00 PM","2019-02-15","Once only","http://fridaysforfuture.de/streiktermine/"
"2/11/2019 11:06:40","info@fridaysforfuture-ka.org","Johannes Grözinger",,,"Germany","Karlsruhe (Hbf Südseite), Hinterm Hauptbahnhof, Karlsruhe","Musterstraße Karlsruhe","9:30:00 AM","2019-02-15","Once only","http://fridaysforfuture.de/streiktermine/"
"2/11/2019 11:57:11","finn.klein.tvw@gmail.com","Finn Klein",,,"Germany","Wetzlar","Domplatz Wetzlar","5:00:00 PM","2019-02-15","Once only","http://fridaysforfuture.de/streiktermine/"
"2/11/2019 14:13:23","g.merit2@web.de","Merit Glasmeyer",,,"Germany","Marburg","Marktplatz","10:00:00 AM","2019-02-15","Once only","http://fridaysforfuture.de/streiktermine/"
"2/11/2019 14:21:17","frederik.v.d.veen@icloud.com","Frederik van der Veen",,,"Germany","Brunswick","Braunschweig","12:00:00 PM","2019-02-15","Once only","http://fridaysforfuture.de/streiktermine/"
"2/15/2019 11:16:59","margret.helga.paul@gmail.com","Margret Paul ",,,"Germany","Frankfurt","Jürgen Ponto Platz 1","11:00 - 12:00","2019-02-15","Every Friday",
"2/15/2019 8:43:27","christine.mellau@posteo.de","Christine",,,"Germany","Friedrichshafen","Buchhornplatz","At 12.00-13.00 (noon to 1pm)","2019-02-15","Once only","https://instagram.com/fridaysforfuture.bodensee?utm_source=ig_profile_share&igshid=1r0xi9ao0akda"
"2/6/2019 20:25:32","ced.hoy@outlook.de","Cedric Hoyer",,,"Germany","Borken","City Park - Market place","13 - 14 ","2019-02-15","Once only",
"2/6/2019 21:51:45","fridaysforfuturesiegburg@gmail.com","Theo",,,"Germany","Siegburg","Siegburg Markt","9:30:00 AM","2019-02-15","Once only","http://fridaysforfuture.de/streiktermine/"
"2/6/2019 22:26:15","wuppertal@fridaysforfuture.de","Demonstration für Klima",,,"Germany","Wuppertal","Bundesallee","10:00:00 AM","2019-02-15","Once only","http://fridaysforfuture.de/streiktermine/"
"2/6/2019 22:43:23","presse@fridays-mainz.de","Juli Sixel ",,,"Germany","Mainz","Hauptbahnhof Mainz","10:00:00 AM","2019-02-15","Once only","http://fridaysforfuture.de/streiktermine/"
"2/7/2019 19:16:47","jakob.zurheide@osnanet.de","Jakob zur Heide",,,"Germany","Osnabrück","Theatervorplatz Osnabrück","10:00:00 AM","2019-02-15","Once only","http://fridaysforfuture.de/streiktermine/"
"2/7/2019 23:27:12","miriam.eichelbaum@gmail.com","Miriam Eichelbaum",,,"Germany","Potsdam","Luisenplatz","2:00:00 PM","2019-02-15","Once only","http://fridaysforfuture.de/streiktermine/"
"2/9/2019 11:39:24","therese_kah@gmx.de","Therese Kah",,,"Germany","Dortmund","Friedensplatz","10:00:00 AM","2019-02-15","Once only","http://fridaysforfuture.de/streiktermine/"
"2/9/2019 11:41:39","dennis10444@web.de","Dennis Georg",,,"Germany","Darmstadt","Luisenplatz/Darmstadt","10:00:00 AM","2019-02-15","Once only","http://fridaysforfuture.de/streiktermine/"
"2/9/2019 11:43:39","markus.moskau@gmail.com","Markus Moskau",,,"Germany","Ludwigsburg","Ludwigsburg Bahnhof","12:00:00 PM","2019-02-15","Once only","http://fridaysforfuture.de/streiktermine/"
"2/9/2019 12:06:49","klimastreiks.hannover@gmail.com","Lou Töllner",,,"Germany","Hanover","Kröpcke","12:30:00 PM","2019-02-15","Once only","http://fridaysforfuture.de/streiktermine/"
"2/9/2019 17:56:07","lmta@web.de","Lukas A",,,"Germany","Duisburg","noch nicht festgelegt (vermutlich Bahnhof oder Rathaus) ","10:00:00 AM","2019-02-15","Once only","http://fridaysforfuture.de/streiktermine/"
"2/9/2019 19:11:35","fridaysforfuture.celle@gmail.com","Paula Seidensticker",,,"Germany","Celle","Stechbahn","9:45:00 AM","2019-02-15","Once only","http://fridaysforfuture.de/streiktermine/"
"2/9/2019 19:45:50","carla@reemtsma.org","Carla",,,"Germany","Münster","Historisches Rathaus","2:00:00 PM","2019-02-15","Once only","http://fridaysforfuture.de/streiktermine/"
"2/9/2019 22:17:58","ced.hoy@outlook.de","Cedric Hoyer",,,"Germany","Borken","Stadtpark / 14 Uhr Marktplatz","1:00:00 PM","2019-02-15","Once only","http://fridaysforfuture.de/streiktermine/"
"2/15/2019 8:36:08","hamburg@fridaysforfuture.de","Hamburg",,,"Germany","Hamburg","Hachmannplatz","10:30-12:30 am","2019-02-22","Once only",
"2/18/2019 12:23:21","erlangen@fridaysforfuture.de","Florian Fischer",,,"Germany","Erlangen","Starting at ""Hugenottenplatz""","14.00-16.00","2019-02-22","Once only","https://m.facebook.com/events/1504274243039049?acontext=%7B%22ref%22%3A%223%22%2C%22action_history%22%3A%22null%22%7D&aref=3"
"2/18/2019 22:50:46","therese_kah@gmx.de","Therese Kah",,,"Germany","Dortmund","In front of townhall","10 - 12","2019-02-22","Weekly","https://web.facebook.com/events/407161253368165/"
"2/20/2019 16:52:42","tillygeiger@gmail.com","Nika",,,"Germany","Stuttgart","In front of townhall","At 12.00-13.00 (noon to 1pm)","2019-02-22","Every Friday",
"2/20/2019 16:52:52","tillygeiger@gmail.com","Nika",,,"Germany","Stuttgart","In front of townhall","At 12.00-13.00 (noon to 1pm)","2019-02-22","Every Friday",
"2/22/2019 6:26:14","lotte.neuhaus@t-online.de","Lotte Neuhaus",,,"Germany","Minden","In front of townhall","11.30-12.30","2019-02-22","Once only",
"2/22/2019 9:28:47","xxxx@example.com","FFF Kiel",,,"Germany","Kiel","Landtag Kiel, Düsternbrookerweg 70","8:30 - 11:30","2019-02-22","Every Friday","https://twitter.com/fff_kiel"
"2/22/2019 9:35:39","xxxx@example.com","FFF München",,,"Germany","Munich","Marienplatz","11:00 - 14:00","2019-02-22","Every Friday","https://twitter.com/fff_muc"
"2/7/2019 19:15:42","erik.mehrle@xn--blsihof-6wa.de","Erik Mehrle",,,"Germany","Lörrach","Lörrach Zentrum","10:00:00 AM","2019-02-22","Once only","http://fridaysforfuture.de/streiktermine/"
"2/15/2019 8:35:01","hamburg@fridaysforfuture.de","Hamburg",,,"Germany","Hamburg","Rathaus","At 8:00am-1:00pm","2019-03-01","Every to weeks on friday",
"2/26/2019 21:46:25","xxxx@example.com","XXX",,,"Germany","Bochum","Start: Schauspielhaus; Ende: Neues Gymnasium-Bochum","11:00 - 13:00","2019-03-01","Once only","https://twitter.com/fffBochum"
"2/27/2019 22:15:59","ben.awenius@gmail.com","Ben Awenius",,,"Germany","Munich","Odeonsplatz",11,"2019-03-01","Once only","https://www.instagram.com/fridaysforfuturemuenchen/"
"2/28/2019 13:00:02","xxxx@example.com","XXX",,,"Germany","Magdeburg","Domplatz","15:30","2019-03-01","Every Friday","https://twitter.com/FfF_Magdeburg"
"2/28/2019 13:06:48","xxxx@example.com","XXX",,,"Germany","Bocholt","Mariengymnasium","13:00","2019-03-01","Once only",
"3/1/2019 20:54:38","louisa@jmarko.de","Louisa",,,"Germany","Altdöbern","In front of townhall","At 12.00-13.00 (noon to 1pm)","2019-03-01","Every Friday",
"3/6/2019 14:52:50","fridaysforfuture_heidelberg@riseup.net","Larissa Müller",,,"Germany","Heidelberg","In front of townhall","At 12.00-13.00 (noon to 1pm)","2019-03-06","Monthly","http://www.instagram.com/fridaysforfuture_heidelberg"
"2/23/2019 14:48:27","Paul.Weidert@gmx.de","Paul Weidert",,,"Germany","Bad Kreuznach","We'll be walking through the city","11:30- open end","2019-03-08","08.03 and 15.03 are already planned but there will be more",
"2/25/2019 12:50:27","janveil@web.de","Jan Veil",,"Das unten angegebene Datum kann sich noch ändern, da der Ort leider noch nicht feststeht.","Germany","Frankfurt","Steht leider noch nicht fest","19 h","2019-03-08","14-tägig",
"2/9/2019 19:48:23","carla@reemtsma.org","Carla",,,"Germany","Münster","Historisches Rathaus","2:00:00 PM","2019-03-08","Once only","http://fridaysforfuture.de/streiktermine/"
"3/6/2019 13:33:07","janveil@web.de","Jan Veil",,"Da ich leider keinen passenden Ort gefunden habe, sage ich das angekündigte Meetup für den 08.03.19 ab","Germany","Frankfurt","findet nicht statt","[19 h]","2019-03-08","[14-tägig]",
"3/7/2019 16:39:55","christina.schliesky@gmail.com","Christina Schliesky",,,"Germany","Mönchengladbach","auf dem Marktplatz vor dem Rathaus Rheydt","At 12.00-13.00 (noon to 1pm)","2019-03-08","Every Friday","https://fridaysforfuture.de/streiktermine/"
"3/12/2019 23:39:45","thomasnutzl@yahoo.fr","thomas",,,"Germany","Berlin","In front of townhall","At 12.00-13.00 (noon to 1pm)","2019-03-12","Every Friday","https://www.facebook.com/thomas.nutzl"
101551,"fridaysforfuture@riseup.com","Luca Salis",,,"Germany","Augsburg","Rathausplatz","11:00","2019-03-15","Once only","fridaysforfuture.de/march15th/"
101552,"fridaysforfuture@riseup.com","Luca Salis",,,"Germany","Bad Oldesloe","Olivet Allee","13:30 Uhr, ","2019-03-15","Once only","fridaysforfuture.de/march15th/"
101553,"fridaysforfuture@riseup.com","Luca Salis",,,"Germany","Bargteheide","Rathaus Bargteheide","10:00","2019-03-15","Once only","fridaysforfuture.de/march15th/"
101554,"fridaysforfuture@riseup.com","Luca Salis",,,"Germany","Bensheim",,"12:00 Uhr, ","2019-03-15","Once only","fridaysforfuture.de/march15th/"
101555,"fridaysforfuture@riseup.com","Luca Salis",,,"Germany","Berlin","Invalidenpark","10:00","2019-03-15","Once only","fridaysforfuture.de/march15th/"
101556,"fridaysforfuture@riseup.com","Luca Salis",,,"Germany","Bielefeld","Hauptbahnhof","12:00","2019-03-15","Once only","fridaysforfuture.de/march15th/"
101557,"fridaysforfuture@riseup.com","Luca Salis",,,"Germany","Bochum","Bochum Hauptbahnhof ","12:00","2019-03-15","Once only","fridaysforfuture.de/march15th/"
101558,"fridaysforfuture@riseup.com","Luca Salis",,,"Germany","Bogen","Vor dem Rathaus ","8:00","2019-03-15","Once only","fridaysforfuture.de/march15th/"
101559,"fridaysforfuture@riseup.com","Luca Salis",,,"Germany","Bottrop","Berliner Platz","12:00","2019-03-15","Once only","fridaysforfuture.de/march15th/"
101560,"fridaysforfuture@riseup.com","Luca Salis",,,"Germany","Brunswick","Schlossplatz","10:00","2019-03-15","Once only","fridaysforfuture.de/march15th/"
101561,"fridaysforfuture@riseup.com","Luca Salis",,,"Germany","Calw","Marktplatz","10:30","2019-03-15","Once only","fridaysforfuture.de/march15th/"
101562,"fridaysforfuture@riseup.com","Luca Salis",,,"Germany","Celle","Stechbahn","12:00","2019-03-15","Once only","fridaysforfuture.de/march15th/"
101563,"fridaysforfuture@riseup.com","Luca Salis",,,"Germany","Cuxhaven","Wochenmarktplatz","10:00","2019-03-15","Once only","fridaysforfuture.de/march15th/"
101564,"fridaysforfuture@riseup.com","Luca Salis",,,"Germany","Darmstadt","Luisenplatz ","10:00","2019-03-15","Once only","fridaysforfuture.de/march15th/"
101565,"fridaysforfuture@riseup.com","Luca Salis",,,"Germany","Dessau-Roßlau","Friedensglocke","11:00","2019-03-15","Once only","fridaysforfuture.de/march15th/"
101566,"fridaysforfuture@riseup.com","Luca Salis",,,"Germany","Dortmund","Friedensplatz","10:00","2019-03-15","Once only","fridaysforfuture.de/march15th/"
101567,"fridaysforfuture@riseup.com","Luca Salis",,,"Germany","Dresden","St. Benno Gymnasium","12:00","2019-03-15","Once only","fridaysforfuture.de/march15th/"
101568,"fridaysforfuture@riseup.com","Luca Salis",,,"Germany","Duisburg","Hauptbahnhof","10:00","2019-03-15","Once only","fridaysforfuture.de/march15th/"
101569,"fridaysforfuture@riseup.com","Luca Salis",,,"Germany","Eisenach","Marktplatz","12:00","2019-03-15","Once only","fridaysforfuture.de/march15th/"
101570,"fridaysforfuture@riseup.com","Luca Salis",,,"Germany","Elmshorn","Start: vor St-Nikolaikirche ","8:50","2019-03-15","Once only","fridaysforfuture.de/march15th/"
101571,"fridaysforfuture@riseup.com","Luca Salis",,,"Germany","Erfurt","Angerdreieck","14:00","2019-03-15","Once only","fridaysforfuture.de/march15th/"
101572,"fridaysforfuture@riseup.com","Luca Salis",,,"Germany","Erlangen","Hugenottenplatz ","12:00 Uhr, ","2019-03-15","Once only","fridaysforfuture.de/march15th/"
101573,"fridaysforfuture@riseup.com","Luca Salis",,,"Germany","Essen","Willy Brandt Platz ","10:00 Uhr, ","2019-03-15","Once only","fridaysforfuture.de/march15th/"
101574,"fridaysforfuture@riseup.com","Luca Salis",,,"Germany","Frankenthal","Speyrer Tor","11:00","2019-03-15","Once only","fridaysforfuture.de/march15th/"
101575,"fridaysforfuture@riseup.com","Luca Salis",,,"Germany","Frankfurt","Bockenheiner Warte ","12:00","2019-03-15","Once only","fridaysforfuture.de/march15th/"
101576,"fridaysforfuture@riseup.com","Luca Salis",,,"Germany","Freiburg","Stühlinger Kirchplatz","10:00 Uhr, ","2019-03-15","Once only","fridaysforfuture.de/march15th/"
101577,"fridaysforfuture@riseup.com","Luca Salis",,,"Germany","Friedberg","Bahnhof","10:00 Uhr, ","2019-03-15","Once only","fridaysforfuture.de/march15th/"
101578,"fridaysforfuture@riseup.com","Luca Salis",,,"Germany","Geislingen","Forellenbrunnen","11:00 Uhr, ","2019-03-15","Once only","fridaysforfuture.de/march15th/"
101579,"fridaysforfuture@riseup.com","Luca Salis",,,"Germany","Gera","Hauptbahnhof","12:00 Uhr, ","2019-03-15","Once only","fridaysforfuture.de/march15th/"
101580,"fridaysforfuture@riseup.com","Luca Salis",,,"Germany","Giessen","Berliner Platz ","11:30 Uhr, ","2019-03-15","Once only","fridaysforfuture.de/march15th/"
101581,"fridaysforfuture@riseup.com","Luca Salis",,,"Germany","Glückstadt",,"7:30 Uhr, ","2019-03-15","Once only","fridaysforfuture.de/march15th/"
101582,"fridaysforfuture@riseup.com","Luca Salis",,,"Germany","Göttingen","Bahnhofsvorplatz","8:00 Uhr, ","2019-03-15","Once only","fridaysforfuture.de/march15th/"
101583,"fridaysforfuture@riseup.com","Luca Salis",,,"Germany","Hagen","Berliner Platz ","10:30 Uhr, ","2019-03-15","Once only","fridaysforfuture.de/march15th/"
101584,"fridaysforfuture@riseup.com","Luca Salis",,,"Germany","Halle (Saale)","Marktplatz","12:00 Uhr, ","2019-03-15","Once only","fridaysforfuture.de/march15th/"
101585,"fridaysforfuture@riseup.com","Luca Salis",,,"Germany","Hamburg","Hachmannplatz","14:30 Uhr, ","2019-03-15","Once only","fridaysforfuture.de/march15th/"
101586,"fridaysforfuture@riseup.com","Luca Salis",,,"Germany","Heidelberg","Marktplatz ","11:00 Uhr, ","2019-03-15","Once only","fridaysforfuture.de/march15th/"
101587,"fridaysforfuture@riseup.com","Luca Salis",,,"Germany","Hildesheim","Marktplatz","12:00 Uhr, ","2019-03-15","Once only","fridaysforfuture.de/march15th/"
101588,"fridaysforfuture@riseup.com","Luca Salis",,,"Germany","Itzehoe","Malzmüllerwiesen","08:00 Uhr, ","2019-03-15","Once only","fridaysforfuture.de/march15th/"
101589,"fridaysforfuture@riseup.com","Luca Salis",,,"Germany","Jena","vor der IGS Grete Unrein","11:00 Uhr, ","2019-03-15","Once only","fridaysforfuture.de/march15th/"
101590,"fridaysforfuture@riseup.com","Luca Salis",,,"Germany","Kaiserslautern","Kaiserslautern Hauptbahnhof","11:30 Uhr","2019-03-15","Once only","fridaysforfuture.de/march15th/"
101591,"fridaysforfuture@riseup.com","Luca Salis",,,"Germany","Kempten","Forum Allgäu ","11:30 Uhr, ","2019-03-15","Once only","fridaysforfuture.de/march15th/"
101592,"fridaysforfuture@riseup.com","Luca Salis",,,"Germany","Cologne","Bahnhofsvorplatz","9:00 Uhr, ","2019-03-15","Once only","fridaysforfuture.de/march15th/"
101593,"fridaysforfuture@riseup.com","Luca Salis",,,"Germany","Konstanz","Herosé-Park ","11:30 Uhr, ","2019-03-15","Once only","fridaysforfuture.de/march15th/"
101594,"fridaysforfuture@riseup.com","Luca Salis",,,"Germany","Lahr","Rathausplatz","11:30 Uhr, ","2019-03-15","Once only","fridaysforfuture.de/march15th/"
101595,"fridaysforfuture@riseup.com","Luca Salis",,,"Germany","Landsberg am Lech","Hauptplatz","14:00 Uhr, ","2019-03-15","Once only","fridaysforfuture.de/march15th/"
101596,"fridaysforfuture@riseup.com","Luca Salis",,,"Germany","Leer","Mühlenplatz","10:00 Uhr, ","2019-03-15","Once only","fridaysforfuture.de/march15th/"
101597,"fridaysforfuture@riseup.com","Luca Salis",,,"Germany","Leipzig","Richard-Wagner-Platz","12:30 Uhr, ","2019-03-15","Once only","fridaysforfuture.de/march15th/"
101598,"fridaysforfuture@riseup.com","Luca Salis",,,"Germany","Leutkirch im Allgäu","Bahnhof","11:00 Uhr, ","2019-03-15","Once only","fridaysforfuture.de/march15th/"
101599,"fridaysforfuture@riseup.com","Luca Salis",,,"Germany","Leverkusen","Am Rathaus","11:30 Uhr","2019-03-15","Once only","fridaysforfuture.de/march15th/"
101600,"fridaysforfuture@riseup.com","Luca Salis",,,"Germany","Lindenberg im Allgäu","Pausenhof der Real- und Mittelschule","11:30 Uhr, ","2019-03-15","Once only","fridaysforfuture.de/march15th/"
101601,"fridaysforfuture@riseup.com","Luca Salis",,,"Germany","Lübeck","Vor der MuK ","11:30 Uhr, ","2019-03-15","Once only","fridaysforfuture.de/march15th/"
101602,"fridaysforfuture@riseup.com","Luca Salis",,,"Germany","Lüchow","ZOB","12:00 Uhr, ","2019-03-15","Once only","fridaysforfuture.de/march15th/"
101603,"fridaysforfuture@riseup.com","Luca Salis",,,"Germany","Lüneburg","Marktplatz ","11:00 Uhr, ","2019-03-15","Once only","fridaysforfuture.de/march15th/"
101604,"fridaysforfuture@riseup.com","Luca Salis",,,"Germany","Mannheim","Schloss Ehrenhof","11:00 Uhr, ","2019-03-15","Once only","fridaysforfuture.de/march15th/"
101605,"fridaysforfuture@riseup.com","Luca Salis",,,"Germany","Marburg","Marktplatz ","12:00 Uhr, ","2019-03-15","Once only","fridaysforfuture.de/march15th/"
101606,"fridaysforfuture@riseup.com","Luca Salis",,,"Germany","Mönchengladbach","Mönchengladbach Hauptbahnhof","17:30 Uhr, ","2019-03-15","Once only","fridaysforfuture.de/march15th/"
101607,"fridaysforfuture@riseup.com","Luca Salis",,,"Germany","Mönchengladbach","Vor dem Rathaus","11:30 Uhr, ","2019-03-15","Once only","fridaysforfuture.de/march15th/"
101608,"fridaysforfuture@riseup.com","Luca Salis",,,"Germany","Münster",,"10:00 Uhr, ","2019-03-15","Once only","fridaysforfuture.de/march15th/"
101609,"fridaysforfuture@riseup.com","Luca Salis",,,"Germany","Neheim, Arnsberg","Marktplatz","10:00 Uhr, ","2019-03-15","Once only","fridaysforfuture.de/march15th/"
101610,"fridaysforfuture@riseup.com","Luca Salis",,,"Germany","Neuruppin",,"13:00 Uhr, ","2019-03-15","Once only","fridaysforfuture.de/march15th/"
101611,"fridaysforfuture@riseup.com","Luca Salis",,,"Germany","Neustadt","Marktplatz","10:00 Uhr, ","2019-03-15","Once only","fridaysforfuture.de/march15th/"
101612,"fridaysforfuture@riseup.com","Luca Salis",,,"Germany","Nordhorn",,"12:00 Uhr, ","2019-03-15","Once only","fridaysforfuture.de/march15th/"
101613,"fridaysforfuture@riseup.com","Luca Salis",,,"Germany","Nuremberg","Sebaldusplatz ","11:00 Uhr, ","2019-03-15","Once only","fridaysforfuture.de/march15th/"
101614,"fridaysforfuture@riseup.com","Luca Salis",,,"Germany","Oberhausen","Markstraße","11:30 Uhr, ","2019-03-15","Once only","fridaysforfuture.de/march15th/"
101615,"fridaysforfuture@riseup.com","Luca Salis",,,"Germany","Osnabrück","Theatervorplatz","10:00 Uhr, ","2019-03-15","Once only","fridaysforfuture.de/march15th/"
101616,"fridaysforfuture@riseup.com","Luca Salis",,,"Germany","Paderborn","Domplatz","13:00 Uhr, ","2019-03-15","Once only","fridaysforfuture.de/march15th/"
101617,"fridaysforfuture@riseup.com","Luca Salis",,,"Germany","Penzberg",,"11:00 Uhr, ","2019-03-15","Once only","fridaysforfuture.de/march15th/"
101618,"fridaysforfuture@riseup.com","Luca Salis",,,"Germany","Pforzheim","Marktplatz ","11:00 Uhr, ","2019-03-15","Once only","fridaysforfuture.de/march15th/"
101619,"fridaysforfuture@riseup.com","Luca Salis",,,"Germany","Rastede",,"10:00 Uhr, ","2019-03-15","Once only","fridaysforfuture.de/march15th/"
101620,"fridaysforfuture@riseup.com","Luca Salis",,,"Germany","Recklinghausen","Hauptbahnhof ","11:00 Uhr, ","2019-03-15","Once only","fridaysforfuture.de/march15th/"
101621,"fridaysforfuture@riseup.com","Luca Salis",,,"Germany","Regensburg","Altstadt","11:00 Uhr, ","2019-03-15","Once only","fridaysforfuture.de/march15th/"
101622,"fridaysforfuture@riseup.com","Luca Salis",,,"Germany","Reutlingen","Marktplatz","11:00 Uhr, ","2019-03-15","Once only","fridaysforfuture.de/march15th/"
101623,"fridaysforfuture@riseup.com","Luca Salis",,,"Germany","Rottweil","Im Stadtgraben","11:30 Uhr, ","2019-03-15","Once only","fridaysforfuture.de/march15th/"
101624,"fridaysforfuture@riseup.com","Luca Salis",,,"Germany","Saarbrücken","Staatstheater ","10:00 Uhr, ","2019-03-15","Once only","fridaysforfuture.de/march15th/"
101625,"fridaysforfuture@riseup.com","Luca Salis",,,"Germany","Schwalm-Eder-Kreis","Marktplatz ","11:00 Uhr, ","2019-03-15","Once only","fridaysforfuture.de/march15th/"
101626,"fridaysforfuture@riseup.com","Luca Salis",,,"Germany","Schweinfurt","Marktplatz","13:30 Uhr, ","2019-03-15","Once only","fridaysforfuture.de/march15th/"
101627,"fridaysforfuture@riseup.com","Luca Salis",,,"Germany","Soest","Marktplatz","13:30 Uhr, ","2019-03-15","Once only","fridaysforfuture.de/march15th/"
101628,"fridaysforfuture@riseup.com","Luca Salis",,,"Germany","Speyer","Sankt-Guido-Stifts-Platz","11:00 Uhr","2019-03-15","Once only","fridaysforfuture.de/march15th/"
101629,"fridaysforfuture@riseup.com","Luca Salis",,,"Germany","Teltow-Fläming","Luckenwalde, Bahnhof","14:30 Uhr, ","2019-03-15","Once only","fridaysforfuture.de/march15th/"
101630,"fridaysforfuture@riseup.com","Luca Salis",,,"Germany","Tübingen","Uhlandstraße","11:00 Uhr, ","2019-03-15","Once only","fridaysforfuture.de/march15th/"
101631,"fridaysforfuture@riseup.com","Luca Salis",,,"Germany","Ulm","Marktplatz","12:00 Uhr, ","2019-03-15","Once only","fridaysforfuture.de/march15th/"
101632,"fridaysforfuture@riseup.com","Luca Salis",,,"Germany","Weiden","Oberer Markt ","10:00 Uhr, ","2019-03-15","Once only","fridaysforfuture.de/march15th/"
101633,"fridaysforfuture@riseup.com","Luca Salis",,,"Germany","Weilheim in Oberbayern","Kirchplatz","11:00 Uhr, ","2019-03-15","Once only","fridaysforfuture.de/march15th/"
101634,"fridaysforfuture@riseup.com","Luca Salis",,,"Germany","Weimar","Theaterplatz ","12:00 Uhr, ","2019-03-15","Once only","fridaysforfuture.de/march15th/"
101635,"fridaysforfuture@riseup.com","Luca Salis",,,"Germany","Weissenburg in Bayern","Kirchweihplatz und Marktplatz ","13:00 Uhr, ","2019-03-15","Once only","fridaysforfuture.de/march15th/"
101636,"fridaysforfuture@riseup.com","Luca Salis",,,"Germany","Wernigerode","Nicolaiplatz","13:00 Uhr, ","2019-03-15","Once only","fridaysforfuture.de/march15th/"
101637,"fridaysforfuture@riseup.com","Luca Salis",,,"Germany","Wetzlar","Bahnhofstraße ","11:00 Uhr, ","2019-03-15","Once only","fridaysforfuture.de/march15th/"
101638,"fridaysforfuture@riseup.com","Luca Salis",,,"Germany","Witten","Rathausplatz","10:00 Uhr, ","2019-03-15","Once only","fridaysforfuture.de/march15th/"
101639,"fridaysforfuture@riseup.com","Luca Salis",,,"Germany","Witzenhausen","Vor dem Rathaus","11:00 Uhr, ","2019-03-15","Once only","fridaysforfuture.de/march15th/"
101640,"fridaysforfuture@riseup.com","Luca Salis",,,"Germany","Worms","Hauptbahnhof","10:00 Uhr, ","2019-03-15","Once only","fridaysforfuture.de/march15th/"
1142000,"Global strike count Mar 15/Ben Feuille 37","Benjamin Ball",,,"Germany","Cologne",,,"2019-03-15",,"Twitter"
1144000,"Global strike count Mar 15/Ben Feuille 35","Benjamin Ball",,,"Germany","Nuremberg",,,"2019-03-15",,"Twitter"
10002801,,"Janine OKeeffe",,,"Germany",,"Country",,"2019-03-15","Once only",
"2/16/2019 20:36:33","Jamila.Noll@gmx.de","Jamila.Noll@gmx.de",,,"Germany","Fulda","In front of townhall","10.00 12.00","2019-03-15","Once only",
"2/17/2019 21:36:36","ruby.joy.sampson@gmail.com","Leon Weixel",,,"Germany","Hagen","Potthoffstraße 22","Not defined yet","2019-03-15","First demonstration in Hagen","https://www.instagram.com/fridaysforfuturehagen/"
"2/2/2019 19:08:41","stellstar@gmx.de","Stella Langer",,,"Germany","Höxter","Marktplatz","At 12.00-13.00 (noon to 1pm)","2019-03-15","Once only",
"2/21/2019 16:07:51","marcelo_1231_@hotmail.com","Marcelo Mirassol",,,"Germany","Bremerhaven","Theodor-Heuss-Platz","At 12.00-13.00 (noon to 1pm)","2019-03-15","Once only","https://instagram.com/fff_bremerhaven?r=nametag"
"2/24/2019 2:32:06","fairteilen@posteo.de","Florian",,,"Germany","Potsdam","Landtag","12-15","2019-03-15","unregelmäßig",
"2/26/2019 23:06:33","christian-falkensee@mail.de","Christian Vogel",,,"Germany","Falkensee","Station and townhall","At 11am to 2pm","2019-03-15","Once only","http://instagram.com/fridaysforfuture.falkensee"
"2/27/2019 23:05:04","klimastreiks.hannover@gmail.com","Kaja",,,"Germany","Hanover","Kröpcke","12.3","2019-03-15","Once only","https://www.facebook.com/events/289616398397119/"
"2/27/2019 7:38:52","xxxx@example.com","XXX",,,"Germany","Ansbach","Martin-Luther-Platz","13:00","2019-03-15","Once only",
"2/27/2019 7:43:34","xxxx@example.com","XXX",,,"Germany","Aschaffenburg","Theaterplatz","12:00","2019-03-15","Once only",
"2/27/2019 7:46:19","xxxx@example.com","XXX",,,"Germany","Bayreuth","Königsallee","11:00","2019-03-15","Once only",
"2/27/2019 7:48:57","xxxx@example.com","XXX",,,"Germany","Boizenburg","Schulzentrum","11:00","2019-03-15","Once only",
"2/27/2019 8:04:14","xxxx@example.com","XXX",,,"Germany","Bonn","Münsterplatz (Demozug)","9:30","2019-03-15","Once only","https://twitter.com/BonnFuture"
"2/27/2019 8:07:25","xxxx@example.com","XXX",,,"Germany","Borken","Marktplatz","13:00","2019-03-15","Once only","https://twitter.com/FFF_Borken"
"2/27/2019 8:16:11","xxxx@example.com","XXX",,,"Germany","Chemnitz","Neumarkt","12:00","2019-03-15","Once only","https://twitter.com/FFFChemnitz"
"2/27/2019 8:18:03","xxxx@example.com","XXX",,,"Germany","Cottbus","Am Stadtbrunnen","13:00","2019-03-15","Once only","https://twitter.com/FFF_Cottbus"
"2/27/2019 8:19:41","xxxx@example.com","XXX",,,"Germany","Deggendorf","Stadtplatz","10:00","2019-03-15","Once only",
"2/27/2019 8:22:11","xxxx@example.com","XXX",,,"Germany","Flensburg","Hafenspitze","10:00","2019-03-15","Once only",
"2/27/2019 8:24:18","xxxx@example.com","XXX",,,"Germany","Gifhorn","Schillerplatz","10:30","2019-03-15","Once only",
"2/27/2019 8:26:49","xxxx@example.com","XXX",,,"Germany","Heide","St. Jürgen Kirche","13:00","2019-03-15","Once only",
"2/27/2019 8:29:55","xxxx@example.com","XXX",,,"Germany","Heidenheim","Bahnhof","11:00","2019-03-15","Once only",
"2/27/2019 8:31:22","xxxx@example.com","XXX",,,"Germany","Jena","Holzmarkt","12:00","2019-03-15","Once only",
"2/27/2019 8:36:39","xxxx@example.com","XXX",,,"Germany","Kiel","Rathausplatz (Demozug)","9:15","2019-03-15","Once only","https://twitter.com/fff_kiel"
"2/28/2019 10:50:23","xxxx@example.com","XXX",,,"Germany","Landau","Rathausplatz","10:00","2019-03-15","Once only",
"2/28/2019 10:52:57","xxxx@example.com","XXX",,,"Germany","Lindau","altes Rathaus","12:00","2019-03-15","Once only",
"2/28/2019 10:55:47","xxxx@example.com","XXX",,,"Germany","Nienburg","Im Meerbachbogen (Bushaltestelle)","11:00","2019-03-15","Once only",
"2/28/2019 10:57:09","xxxx@example.com","XXX",,,"Germany","Offenburg","Fischmarkt","11:00","2019-03-15","Once only",
"2/28/2019 11:00:24","xxxx@example.com","XXX",,,"Germany","Oldenburg","Wardenburg","12:00","2019-03-15","Once only",
"2/28/2019 11:02:01","xxxx@example.com","XXX",,,"Germany","Ravensburg","Bahnhof","11:00","2019-03-15","Once only",
"2/28/2019 11:04:17","xxxx@example.com","XXX",,,"Germany","Siegen","Vor der Bluebox (Demozug)","11:00","2019-03-15","Once only","https://twitter.com/fff_siegen"
"2/28/2019 11:05:37","xxxx@example.com","XXX",,,"Germany","Siegburg","Siegburg Markt","9:30","2019-03-15","Once only",
"2/28/2019 11:06:56","xxxx@example.com","XXX",,,"Germany","Trier","Domfreihof","10:00","2019-03-15","Once only",
"2/28/2019 11:10:05","xxxx@example.com","XXX",,,"Germany","Wiesbaden","?","12:00","2019-03-15","Once only",
"2/28/2019 18:06:36","xxxx@example.com","XXX",,,"Germany","Wuppertal","Vor dem Schauspielhaus (Kluse)","10:00","2019-03-15","Once only","https://twitter.com/F4F_Wuppertal"
"2/6/2019 20:24:17","berlin@fridaysforfuture.de","Luisa Neubauer ",,,"Germany","Berlin","In front of townhall","At 12.00-13.00 (noon to 1pm)","2019-03-15","Every Friday",
"2/6/2019 20:25:28","hamburg@fridaysforfuture.de","FFF Hamburg",,,"Germany","Hamburg","In front of townhall","8:00-11:00","2019-03-15","Every Friday",
"2/6/2019 20:25:54","emilia.dudel@gmx.de","Hannah ",,,"Germany","Halle (Saale)","In front of townhall","11 - 13","2019-03-15","Monthly",
"2/6/2019 20:31:31","fff.landsberg@gmail.com","Jonathan Auer",,,"Germany","Landsberg am Lech","In front of townhall","11-13","2019-03-15","Monthly","https://instagram.com/fridays.for.future.landsberg"
"2/6/2019 20:32:59","Robin.Schaletzki@gmx.de","Robin Schaletzki",,,"Germany","Pforzheim","In front of townhall","11:00","2019-03-15","Nicht regelmäßig ",
"2/6/2019 20:35:07","engelchen6731@gmail.com","Angelina ",,,"Germany","Gütersloh","Berliner Platz ","At 12.00-13.00 (noon to 1pm)","2019-03-15","Monthly",
"2/6/2019 21:24:38","schneideremily@gmx.net","Emily Schneider ",,,"Germany","Lindau","Oberstaufen ","12.00-14.00","2019-03-15","Once only",
"2/6/2019 21:56:02","fff.rostock@gmail.com","Lexi",,,"Germany","Rostock","Rostock","12:00:00 AM","2019-03-15","Once only","http://fridaysforfuture.de/streiktermine/"
"2/6/2019 23:03:02","fridaysforfuture.tuebingen@posteo.de","Anneke Martens",,,"Germany","Tübingen","Holzmarkt","11:00-15:00","2019-03-15","Monthly","https://www.facebook.com/events/2260650244209579/"
"2/7/2019 19:17:17","fff.rostock@gmail.com","Pia Hornung ",,,"Germany","Rostock","Kröpeliner Tor ","12:00:00 PM","2019-03-15","Once only","http://fridaysforfuture.de/streiktermine/"
"2/7/2019 19:18:23","fff.dessau@gmail.com","Paul Nolte ",,,"Germany","Dessau, Dessau-Roßlau","Rathausplatz","12:30:00 PM","2019-03-15","Once only","http://fridaysforfuture.de/streiktermine/"
"2/7/2019 23:33:33","miriam.eichelbaum@gmail.com","Miriam Eichelbaum",,,"Germany","Potsdam","Luisenplatz",14,"2019-03-15","Monthly",
"2/8/2019 1:50:39","lea-egdmann@gmx.net","Lea Lorca Davina Egdmann ",,,"Germany","Bremen","Starting at Bahnhofsvorplatz (in front of Central Railway Station) to ","At 10.00- 14. 00 ","2019-03-15","Nearly every week, with pauses ","https://instagram.com/fridaysforfuture.bremen?utm_source=ig_profile_share&igshid=1me1ngjfgp8r7"
"2/8/2019 11:05:51","fridaysforfuture.leipzig@mail.de","Ita Weinrich ",,,"Germany","Leipzig","Augustus Platz (Leipzig) ","12:30 -16:00 Uhr ","2019-03-15","Once only",
"2/8/2019 7:37:01","hamburg@fridaysforfuture.de","Hamburg FFF",,,"Germany","Hamburg","Rathaus","8:00-11:00","2019-03-15","Every Friday",
"2/9/2019 14:24:32","luisa.neubauer@hamburg.de","Luisa ",,,"Germany","Berlin","Start: Invalidenpark ","10:00:00 AM","2019-03-15","Once only","http://fridaysforfuture.de/streiktermine/"
"2/9/2019 20:51:56","landelin.winter@posteo.de","Landelin Winter",,,"Germany","Eberswalde","Hauptbahnhof Eberswalde","1:32:00 PM","2019-03-15","Once only","http://fridaysforfuture.de/streiktermine/"
"3/1/2019 9:26:35","hirsch@raufeld.de","Katinka Hirsch",,,"Germany","Berlin","In front of townhall","At 12.00-13.00 (noon to 1pm)","2019-03-15","Monthly","https://www.instagram.com/hirschfabrik/"
"3/10/2019 13:52:04","luisa.neubauer@hamburg.de","Luisa Neubauer",,,"Germany","Berlin","Invalidenplatz","10.00-2.00","2019-03-15","Every Friday","https://www.facebook.com/events/2094978190793810/"
"3/10/2019 14:10:51","beatrice.krivickaite@gmail.com","Beatricr",,,"Germany","Berlin","In front of townhall","At 12.00-13.00 (noon to 1pm)","2019-03-15","Once only",
"3/10/2019 15:44:10","duesseldorf@fridaysforfuture.de","Lukas Mielczarek",,,"Germany","Düsseldorf","In front of townhall","11:00-15:00","2019-03-15","Every Friday","https://www.facebook.com/events/2094521317291166/"
"3/10/2019 21:19:07","jakob.zurheide@osnanet.de","Jakob ",,,"Germany","Osnabrück","Theatervorplatz",10,"2019-03-15","Every Friday",
"3/10/2019 21:46:01","j.kilgus@gmx.de","Janne",,,"Germany",,"In front of townhall","7:40-9:10 am","2019-03-15","Once only",
"3/11/2019 18:23:51","jmt@teddylinx.de","Jördis Thümmler ",,,"Germany","Freiberg","In front of townhall","14:00","2019-03-15","Once only","https://instagram.com/fridaysforfuture.freiberg?utm_source=ig_profile_share&igshid=vlnjyicv7jok"
"3/11/2019 18:49:26","esther.alba@hotmail.com","Esther Alba",,,"Germany","Mannheim",,,"2019-03-15","","https://m.facebook.com/FridaysForFutureMannheim/"
"3/11/2019 18:52:32","leonard.hoehn@t-online.de","Leonard Höhn",,,"Germany","Künzelsau","In front of old townhall","13:15-14:30","2019-03-15","Once only","https://www.facebook.com/events/954335654957702/"
"3/11/2019 20:13:43","christian-falkensee@mail.de","Christian",,,"Germany","Achern","In front of townhall","11.00 am","2019-03-15","Once only",
"3/11/2019 20:16:27","christian-falkensee@mail.de","Christian",,,"Germany","Bad Kreuznach","Church Pauluskirche","11.30 am","2019-03-15","Once only",
"3/11/2019 20:18:05","christian-falkensee@mail.de","Christian",,,"Germany","Bad Mergentheim","Station","10.30 am","2019-03-15","Once only",
"3/11/2019 20:19:26","christian-falkensee@mail.de","Christian",,,"Germany","Bad Säckingen","Münsterplatz","11.30 am","2019-03-15","Once only",
"3/11/2019 20:20:41","christian-falkensee@mail.de","Christian",,,"Germany","Bad Tölz","Vichyplatz","11.00 am","2019-03-15","Once only",
"3/11/2019 20:22:19","christian-falkensee@mail.de","Christian",,,"Germany","Balingen","Marktplatz","11.00 am","2019-03-15","Once only",
"3/11/2019 20:26:29","christian-falkensee@mail.de","Christian",,,"Germany","Bochum","main station/Hauptbahnhof","12 noon","2019-03-15","Once only",
"3/11/2019 20:28:15","christian-falkensee@mail.de","Christian",,,"Germany","Brunswick","Schlossplatz","10 am","2019-03-15","Once only",
"3/11/2019 20:29:47","christian-falkensee@mail.de","Christian",,,"Germany","Buchholz in der Nordheide","Schützenplatz","12 noon","2019-03-15","Once only",
"3/11/2019 20:31:47","christian-falkensee@mail.de","Christian",,,"Germany","Coburg","Realschule CO I","11.45 am","2019-03-15","Once only",
"3/11/2019 20:33:26","christian-falkensee@mail.de","Christian",,,"Germany","Castrop-Rauxel","Marktplatz","1 pm","2019-03-15","Once only",
"3/11/2019 20:36:03","christian-falkensee@mail.de","Christian",,,"Germany","Darmstadt","Luisenplatz","10 am","2019-03-15","Once only",
"3/11/2019 20:37:18","christian-falkensee@mail.de","Christian",,,"Germany","Duisburg","main station/Hauptbahnhof","10 am","2019-03-15","Once only",
"3/11/2019 20:38:16","christian-falkensee@mail.de","Christian",,,"Germany","Düren","Kaiserplatz","10 am","2019-03-15","Once only",
"3/11/2019 20:41:02","christian-falkensee@mail.de","Christian",,,"Germany","Emden","Schulzentrum MAX, JAG, BBS","10 am","2019-03-15","Once only",
"3/11/2019 20:42:01","christian-falkensee@mail.de","Christian",,,"Germany","Erlangen","Schlossplatz","12 noon","2019-03-15","Once only",
"3/11/2019 20:43:22","christian-falkensee@mail.de","Christian",,,"Germany","Eutin","Wasserturm (Bismarkstraße)","10.30 am","2019-03-15","Once only",
"3/11/2019 20:46:35","christian-falkensee@mail.de","Christian",,,"Germany","Göppingen","Kreissparkasse am Bahnhof","11.30 am","2019-03-15","Once only",
"3/11/2019 20:47:33","christian-falkensee@mail.de","Christian",,,"Germany","Greifswald","Münlentor","10 am","2019-03-15","Once only",
"3/11/2019 20:50:11","christian-falkensee@mail.de","Christian",,,"Germany","Heidelberg","Marktplatz","11 am","2019-03-15","Once only",
"3/11/2019 20:51:33","christian-falkensee@mail.de","Christian",,,"Germany","Herzogenaurach","Gymnasium","1 pm","2019-03-15","Once only",
"3/11/2019 20:52:29","christian-falkensee@mail.de","Christian",,,"Germany","Hildesheim","main station/Hauptbahnhof","12 noon","2019-03-15","Once only",
"3/11/2019 20:53:16","christian-falkensee@mail.de","Christian",,,"Germany","Husum","Wendehammer","8 am","2019-03-15","Once only",
"3/11/2019 20:54:29","christian-falkensee@mail.de","Christian",,,"Germany","Ingolstadt","Theaterplatz","1 pm","2019-03-15","Once only",
"3/11/2019 20:56:03","Christian-Falkensee@mail.de","Christian",,,"Germany","Kappeln","Nordhafen","10 am","2019-03-15","Once only",
"3/11/2019 20:57:40","christian-falkensee@mail.de","Christian",,,"Germany","Kehl","In front of townhall","10.30 am","2019-03-15","Once only",
"3/11/2019 20:58:54","christian-falkensee@mail.de","Christian",,,"Germany","Kempten","Forum Allgäu","11.30 am","2019-03-15","Once only",
"3/11/2019 21:00:14","christian-falkensee@mail.de","Christian",,,"Germany","Kleve","am Ehrenmal","12 noon","2019-03-15","Once only",
"3/11/2019 21:04:09","christian-falkensee@mail.de","Christian",,,"Germany","Koblenz","Bahnhofsvorplatz","11:55 am (fünf vor zwölf/five to twelve)","2019-03-15","Once only",
"3/11/2019 21:06:56","christian-falkensee@mail.de","Christian",,,"Germany","Landshut","In front of townhall","11.30 am","2019-03-15","Once only",
"3/11/2019 21:08:53","christian-falkensee@mail.de","Christian",,,"Germany","Lemgo","Lemgoer Marktplatz","12 noon","2019-03-15","Once only",
"3/11/2019 21:11:05","christian-falkensee@mail.de","Christian",,,"Germany","Lörrach","Bahnhofsplatz","12 noon","2019-03-15","Once only",
"3/11/2019 21:14:00","christian-falkensee@mail.de","Christian",,,"Germany","Ludwigsburg","Bahnhof/station","12 noon","2019-03-15","Once only",
"3/11/2019 21:16:11","christian-falkensee@mail.de","Christian",,,"Germany","Mainz","main station/Hauptbahnhof","10 am","2019-03-15","Once only",
"3/11/2019 21:17:48","christian-falkensee@mail.de","Christian",,,"Germany","Marburg","Marktplatz","12 noon","2019-03-15","Once only",
"3/11/2019 21:20:59","christian-falkensee@mail.de","Christian",,,"Germany","Passau","Cagnes-sur-Mer Promenade","11:30 am","2019-03-15","Once only",
"3/11/2019 21:21:42","christian-falkensee@mail.de","Christian",,,"Germany","Peine","In front of townhall","11 am","2019-03-15","Once only",
"3/11/2019 21:24:51","Christian-Falkensee@mail.de","Christian",,,"Germany","Saarbrücken","Kongresshalle","10 am","2019-03-15","Once only",
"3/11/2019 21:26:07","christian-falkensee@mail.de","Christian",,,"Germany","Schwerin","Grunthalplatz","11 am","2019-03-15","Once only",
"3/11/2019 21:27:44","christian-falkensee@mail.de","Christian",,,"Germany","Stade","Stadeum","11 am","2019-03-15","Once only",
"3/11/2019 21:29:13","christian-falkensee@mail.de","Christian",,,"Germany","Villingen-Schwenningen","Amtsgericht (Villingen)","11.30 am","2019-03-15","Once only",
"3/11/2019 21:31:22","christian-falkensee@mail.de","Christian",,,"Germany","Wetzlar","Bahnhofstraße","11 am","2019-03-15","Once only",
"3/11/2019 21:32:46","christian-falkensee@mail.de","Christian",,,"Germany","Würzburg","main station/Hauptbahnhof","11 am","2019-03-15","Once only",
"3/12/2019 1:04:11","stefan@gjdn.de","Stefan",,,"Germany","Düren","Kaiserplatz","10:30am","2019-03-15","Once only",
"3/12/2019 14:08:08","tarektillo@gmail.com","Tarek Tillo",,,"Germany","Bergen auf Rügen","In front of townhall","9:30am to 12am ","2019-03-15","Once only","https://klima-bergen-info.jimdofree.com"
"3/12/2019 14:44:51","maltepastitz10@gmail.com","Malte Paschirbe",,,"Germany","Bergen auf Rügen","In front of townhall","09.30-12.00","2019-03-15","Once only","https://klima-bergen-info.jimdofree.com"
"3/12/2019 17:46:48","aurelia.delin@gmail.com","Aurelia Delin",,,"Germany","Lörrach","Bahnhofsplatz (station)","12 -14.15","2019-03-15","Monthly",
"3/12/2019 17:58:18","finn@sobanja.de","Finn Sobanja ",,,"Germany","Buxtehude","Schafsmarkt ","9:30 ","2019-03-15","Once only",
"3/12/2019 18:28:56","klinkharta@gmail.com","Fynn Klinkhart",,,"Germany","Wyk auf Föhr","In front of townhall","10.00 - Open End","2019-03-15","Once only",
"3/12/2019 19:02:37","maximilianboettcher2001@gmail.com","Maximilian Böttcher",,,"Germany","Schleswig","In front of townhall","9.30-13","2019-03-15","Monthly",
"3/12/2019 21:14:37","addie.crosby@msf.education","Adelaide Crosby",,,"Germany","Frankfurt","In front of townhall","12:00-15:00","2019-03-15","Once only",
"3/12/2019 9:46:06","Marie.birlenberg@hotmail.com","Marie-Louise Birlenberg",,,"Germany","Aschaffenburg","In front of townhall","At 12.00-13.00 (noon to 1pm)","2019-03-15","Monthly",
"3/13/2019 10:31:24","fridaysforfuture.krefeld@gmail.com","Annika",,,"Germany","Krefeld","Krefeld HBF",11,"2019-03-15","Weekly","https://www.facebook.com/events/370969633739773/"
"3/13/2019 13:31:47","nathaliearnold2802@gmail.com","Nathalie Arnold-Keute",,,"Germany","Frankenberg (Eder)","In front of townhall","At 12.00-13.00 (noon to 1pm)","2019-03-15","Once only",
"3/13/2019 15:01:27","aburunciuc@gmail.com","Angela Burunciuc",,,"Germany","Erlenbach am Main","In front of townhall","At 12.00-13.00 (noon to 1pm)","2019-03-15","Once only",
"3/13/2019 15:15:19","benjajank@gmail.com","Benjamin Janke",,"Ich bin nicht der ofizielle Organisator, aber in der Orga beteiligt","Germany","Singen","In front of townhall","10:15-11:30","2019-03-15","Once only","https://chat.whatsapp.com/BLV1CiUOX4wFuGllICan9x"
"3/13/2019 21:10:09","moritz.junge@plant-for-the-planet-ambassador.org","Moritz Junge",,,"Germany","Wilhelmshaven","Start am Parkplatz des Jadestadions um 11:30 Uhr dann Protestmarsch zum Valoisplatz wo es um 12:30 Uhr mit dem Programm losgeht. ","11:30 ","2019-03-15","Once only","https://www.schuelergruppeklima.org/startseite/veranstaltungen-2017-2018/veranstaltungsdetails/fridays-for-future-wilhelmshaven/"
"3/13/2019 23:32:14","gamzedoener@hotmail.de","Gamze",,,"Germany","Heilbronn","Götzenturm ","11.3","2019-03-15","Weekly","https://www.facebook.com/events/314618255924610/?ti=icl"
"3/13/2019 7:26:43","bb@lakaemper5.de","Brian Bo Lakämper",,,"Germany","Winsen","Schloßplatz","11:00 h","2019-03-15","Once only",
"3/14/2019 0:48:06","jonas@go2alex.org","Jonas Gresch",,,"Germany","Prien am Chiemsee","From the maket to the townhall","13:10-14:10","2019-03-15","Once only",
"3/14/2019 16:37:07","canteskauya112@web.de","Jens Fröhlke ",,,"Germany","Wildeshausen","Railwaystation ","10-13:30","2019-03-15","Once only",
"3/14/2019 17:09:12","meine111@gmx.de","Alexander Gross",,,"Germany","Darmstadt",,,"2019-03-15",,
"3/15/2019 10:03:37","fdettbarn@aol.com","Felix dettbarn",,,"Germany","Landau",,,"2019-03-15",,
"3/15/2019 10:26:12","Finnwallenhorst@web.de","Finn Wallenhorst",,"Schreibt mir eine Whatts app für mehr Informationen ","Germany","Jever","In front of townhall","At 12.00-13.00 (noon to 1pm)","2019-03-15","Weekly",
"3/15/2019 11:02:37","Klimastreik-landau@gmx.de","Iruna Müller",,,"Germany","Landau",,,"2019-03-15","","https://m.facebook.com/groups/2212679555639564?view=permalink&id=2266315363609316"
"3/15/2019 14:08:29","thewavemaker@web.de","THE WAVEMAKER(Music Producer)",,,"Germany","Erfurt",,,"2019-03-15","","https://www.youtube.com/channel/UCNgpZnutv5pCDtrgZlgDjww/featured"
"3/15/2019 15:00:55","maddalena.roquette@gmail.com","Maddie",,,"Germany","Bonn",,,"2019-03-15","","https://fridaysforfuture.org"
"3/15/2019 15:09:03","derekfard8@gmail.com","derek",,,"Germany","Berlin",,,"2019-03-15","","https://twitter.com/FFF_Berlin?lang=de"
"3/15/2019 15:27:51","thewavemaker@web.de","THE WAVEMAKER",,,"Germany","Neureichenau",,,"2019-03-15","","https://www.youtube.com/watch?v=BKD2e5-jVSk&list=PLAEVPYdC5ED4gW5xAcB3FUbECYGOj7DKo"
"3/15/2019 15:47:54","w.palitzsch@loserchemie.de","Tungsten",,,"Germany","Freiberg",,,"2019-03-15","","https://twitter.com/tungsten1966/status/1106567038691143681?s=21"
"3/15/2019 16:02:55","luenen_fridaysforfuture@outlook.de","Ruth Kirschbaum",,,"Germany","Lünen",,,"2019-03-15",,
"3/15/2019 16:46:51","ruena@web.de","Jens Gottstein",,,"Germany","Brunswick",,,"2019-03-15",,
"3/15/2019 17:48:11","isacita@hotmail.com","Isabel Gahren",,,"Germany","Berlin",,,"2019-03-15","","https://www.facebook.com/events/1994180377345229/permalink/2114024862027446/?notif_t=feedback_reaction_generic&notif_id=1552667558376798"
"3/15/2019 19:39:00","luca.salis@web.de","Luca Salis",,,"Germany","Hamburg",,,"2019-03-15",,
"3/15/2019 19:54:13","thewavemaker@web.de","THE WAVEMAKER",,,"Germany","Neureichenau",,,"2019-03-15",,
"3/15/2019 20:15:51","thewavemaker@web.de","THE WAVEMAKER",,"I can handle with my You-Tube Channel, about the Thematik! I produce my on thing´s and i can post(put some thing of your activities on my Channel)some thing about the Demonstration´s and I will do it by my selfe by the Time also!!!","Germany","Neureichenau","on my Channel...https://www.youtube.com/channel/UCNgpZnutv5pCDtrgZlgDjww","24h","2019-03-15","Every Day","https://www.youtube.com/channel/UCNgpZnutv5pCDtrgZlgDjww"
"3/15/2019 21:12:30","e.c.schulze@outlook.de","Emma ",,,"Germany","Potsdam",,,"2019-03-15","","https://instagram.com/fridayforfuture?utm_source=ig_profile_share&igshid=12jh1yfsgpp7m"
"3/15/2019 21:17:48","linus.steinmetz@climatestrike.net","Linus Steinmetz",,,"Germany","Göttingen",,,"2019-03-15","","https://www.facebook.com/fridaysforfuture.de/"
"3/15/2019 21:27:14","antonia.messerschmitt@posteo.de","Antonia Messerschmitt",,,"Germany","Munich",,,"2019-03-15",,
"3/15/2019 22:52:21","Cornelia@Cornels-Selke.de","Cornelia Cornels-Selke",,,"Germany","Landshut",,,"2019-03-15",,
"3/15/2019 22:56:46","ideenscout@web.de","Georg E. Moeller",,,"Germany","Hamburg",,,"2019-03-15","","https://www.facebook.com/georg.moeller.5/posts/10215108022468996"
"3/15/2019 23:56:20","leon@goethemail.net","Leon Asmuth",,,"Germany","Kassel",,,"2019-03-15",,
"3/15/2019 6:53:02","anitnelav1308@gmail.com","Valentina Meier",,,"Germany","Düsseldorf",,,"2019-03-15",,
"3/15/2019 7:01:49","w.palitzsch@loserchemie.de","Tungsten",,,"Germany","Freiberg","In front of townhall",14,"2019-03-15","Global Strike on the 15th of March 2019",
"3/15/2019 8:31:36","guneysaner@outlook.com","Luhan",,,"Germany","Hamm","main train station Hamm","10-12","2019-03-15","Every Friday","https://twitter.com/fffhamm/status/1105033840173682688?s=19"
"3/15/2019 9:40:50","aziza.ernst@t-online.de","Aziza Ernst",,,"Germany","Amberg","Maltesergarten","14:00","2019-03-15","Once only","https://www.facebook.com/events/2008985179219381/"
"3/16/2019 14:42:51","schemschur.christopher@gmail.com","Christopher Schemschur",,,"Germany","Achern",,,"2019-03-15",,
"3/16/2019 14:51:23","enno.neuhaus@t-online.de","Enno Neuhaus",,,"Germany","Minden",,,"2019-03-15","","https://www.instagram.com/fridaysforfutureminden/"
"3/16/2019 16:07:34","emilia.dudel@gmx.de","Hannah",,,"Germany","Halle (Saale)",,,"2019-03-15",,
"3/16/2019 16:13:15","pierre.brosemer@gmail.com","Pierre Brosemer",,,"Germany","Karlsruhe",,,"2019-03-15","","https://www.facebook.com/events/330280784285934/"
"3/16/2019 16:35:50","cocoppa.chan@gmail.com","Katrin Stecher ",,,"Germany","Bad Reichenhall",,,"2019-03-15",,
"3/16/2019 17:44:11","amelyadler@gmail.com","Amely",,,"Germany","Chemnitz",,,"2019-03-15","","https://instagram.com/fridaysforfuture_chemnitz?utm_source=ig_profile_share&igshid=b5tskyz6iqf7"
"3/16/2019 19:16:42","maike.stelter@gmx.de","Maike",,,"Germany","Brunswick",,,"2019-03-15","","https://www.ndr.de/nachrichten/niedersachsen/FridaysForFuture-Tausende-Schueler-machen-mit,fridaysforfuture174.html"
"3/16/2019 19:28:20","t.braack@braackonline.de","Tom Braack",,,"Germany","Kleve",,,"2019-03-15",,
"3/16/2019 19:32:19","m.nietan@web.de","Mattias Nietan ",,,"Germany","Düren",,,"2019-03-15",,
"3/16/2019 22:32:03","dominique.swoboda@t-online.de","Dominique Swoboda",,,"Germany","Bad Segeberg",,,"2019-03-15",,
"3/16/2019 23:39:49","test.konto5544@gmail.com","DerKohleabbauExperte",,,"Germany","Hamburg",,,"2019-03-15",,
"3/16/2019 6:18:33","wuerzburg@fridaysforfuture.de","Anouki Heß",,,"Germany","Würzburg",,,"2019-03-15","","https://www.facebook.com/events/630106280766308/?ti=cl"
"3/16/2019 8:08:02","juliamay100.jm@gmail.com","Julia May",,,"Germany","Recklinghausen",,,"2019-03-15",,
"3/17/2019 0:27:00","chanti.kringe@gmail.com","Chantal Kringe",,,"Germany","Siegen",,,"2019-03-15","","https://instagram.com/fridaysforfuture_siegen?utm_source=ig_profile_share&igshid=db8awtjn63dx"
"3/17/2019 10:10:33","an_drimg@protonmail.com","Andre Immig",,,"Germany","Bingen",,,"2019-03-15",,
"3/17/2019 10:15:24","an_drimg@protonmail.com","Andre Immig",,,"Germany","Ingelheim am Rhein",,,"2019-03-15",,
"3/17/2019 10:19:20","an_drimg@protonmail.com","Andre Immig",,,"Germany","Bad Kreuznach",,,"2019-03-15","","https://www.facebook.com/events/970841563125988/"
"3/17/2019 12:54:42","aurelia.delin@gmail.com","Aurelia Sickert-Delin",,,"Germany","Lörrach",,,"2019-03-15","","https://fridaysforfuture.de/regionalgruppen/"
"3/17/2019 14:40:33","Eutin@fridaysforfuture.de","Kasimir",,,"Germany","Eutin",,,"2019-03-15",,
"3/17/2019 16:40:54","fridaysforfuture.krefeld@gmail.com","Annika",,,"Germany","Krefeld",,,"2019-03-15","","https://www.facebook.com/Fridays-for-Future-Krefeld-2249821001958916"
"3/17/2019 8:33:57","constantin.ruppel@gmail.com","Constantin Ruppel ",,,"Germany","Biberach",,,"2019-03-15",,
"3/18/2019 13:06:06","luisa.neubauer@hamburg.de","Luisa Neubauer",,,"Germany","Berlin","Invalidenplatz","10.00-2.00","2019-03-15","Every Friday","https://www.facebook.com/events/2094978190793810/"
"3/19/2019 22:05:16","natur.kst@gmail.com","Georg lüdecke",,,"Germany","Kempen",,,"2019-03-15",,
"3/2/2019 14:52:06","isabel.martin@ichbin-da.de","Isabel Martin",,,"Germany","Karlsruhe","In front of townhall","11.00-12.00","2019-03-15","Once only",
"3/28/2019 20:09:09","nik.zoeschi@web.de","Niklas Zöschinger",,,"Germany","Wertingen",,,"2019-03-15","","https://www.instagram.com/fridaysforfuturewertingen/"
"3/4/2019 22:40:58","fridaysforfuturebamberg@outlook.de","Philipp Feierabend",,"For contact, please use Whatsapp, for exchange call me","Germany","Bamberg","11:30 am: start at the Bahnhofsvorplatz - 12:15 pm: demonstration (Luitpoldstraße -> Willy-Lessing-Straße -> right on Lange Straße -> right on Grüner Markt -> left on Maximilliansplatz) 1:00 pm: speech at Maximilliansplatz","At 11:30 - 13:30 (noon to 3pm)","2019-03-15","Once only","https://www.instagram.com/fridaysforfuturebbg"
"3/5/2019 18:13:14","fridaysforfuture-kn@riseup.net","Jannis Krüßmann",,,"Germany","Konstanz","varies","At 12.00-13.00 (noon to 1pm)","2019-03-15","roundabout twice a month","https://www.facebook.com/FridaysForFutureKonstanz/"
"3/5/2019 21:19:48","lw.leonweber@gmail.com","Leon Weber",,,"Germany","Rendsburg","Obereiderhafen","10:15","2019-03-15","bi-weekly","https://www.instagram.com/fff.rendsburg/"
"3/5/2019 22:09:50","nyssenhanna@gmail.com","Hanna Nyssen",,,"Germany","Seligenstadt","In front of townhall","10:30-12:30","2019-03-15","Once only","https://instagram.com/fridaysforfuture_sel"
"3/5/2019 23:26:07","LuckenwaldeTomRitter@gmail.com","Tom Ritter",,,"Germany","Trebbin","In front of townhall","14:30 - 16:30","2019-03-15","Once only",
"3/5/2019 7:50:12","M.Weiss_H35@web.de","Meeri Weiss",,,"Germany","Kassel","Or strike starts in front of our main station ""Hauptbahnhof""","10.00-14.00","2019-03-15","Every week at a different time; and usually in front of the townhall ","https://www.instagram.com/@fridaysforfuturekassel"
"3/6/2019 1:29:13","fridaysforfuture-kn@riseup.net","Christine ",,,"Germany","Konstanz","Herosé-Park","11:30","2019-03-15","Once only","https://m.facebook.com/pg/FridaysForFutureKonstanz"
"3/6/2019 11:14:12","fridaysforfuturemannheim@gmail.com","Buse Kilincer",,,"Germany","Mannheim","Ehrenhof Mannheim","11.00-14.00","2019-03-15","Monthly","https://www.facebook.com/events/333221777319948/?ti=icl"
"3/6/2019 19:16:17","stolpmann@tuta.io","René Stolpmann",,,"Germany","Nordhausen","In front of townhall","13.00 - 14.00","2019-03-15","Every Friday","https://www.facebook.com/FFFndh/photos/a.259549728306304/259549694972974/?type=3&theater"
"3/6/2019 20:30:52","robertw1309@outlook.de","Robert Wlodarczyk",,,"Germany","Ratzeburg","In front of townhall","11.00-13.15","2019-03-15","Once only","https://chat.whatsapp.com/EpoprnJcK2A5T7neCZuSnJ"
"3/6/2019 23:25:29","antonia.muriel14@gmail.com","Antonia Messerschmitt",,,"Germany","Munich","Odeonsplatz","11.00am","2019-03-15","Once only","https://www.facebook.com/events/2261090190822500/"
"3/6/2019 6:41:01","amyepperlein@icloud.com","Amy",,,"Germany","Prenzlau","Am Marktplatz ","At 10:00 - 12:30","2019-03-15","Once only","https://instagram.com/p/BunZ-6SB19W/"
"3/6/2019 8:54:00","klara.spring@gmx.de","Klara Spring",,,"Germany","Bad Reichenhall","In front of townhall","12.00-14.00","2019-03-15","we don't know yet","https://www.instagram.com/fridaysforfuture.reichenhall/"
"3/6/2019 8:56:06","celle@fridaysforfuture.de","Paula",,,"Germany","Celle","An der Stechbahn","12:00-14:00","2019-03-15","Monthly","https://www.facebook.com/events/2262546857351709/?ti=cl"
"3/7/2019 11:20:36","bielefeld@Fridaysforfuture.de","Lea Büllesbach",,,"Germany","Bielefeld","Protest march from Main Train Station to townhall","12.00-14.00","2019-03-15","Once only",
"3/7/2019 15:50:36","christina.schliesky@gmail.com","Christina Schliesky",,,"Germany","Mönchengladbach","Marktplatz vor dem Rathaus Rheydt","At 12.00-13.00 (noon to 1pm)","2019-03-15","Once only","https://twitter.com/F4F_MG"
"3/7/2019 16:17:45","3er-nml@web.de","Nele Dreier",,,"Germany","Marl","In front of townhall","At 10.00-12.00 ","2019-03-15","Once only",
"3/7/2019 16:55:47","stolpmann@tuta.io","René Stolpmann",,,"Germany","Gera","Kunst und Kongresszentrum","At 12.00-13.00 (noon to 1pm)","2019-03-15","every second Friday","https://m.facebook.com/events/2288945894706075/"
"3/7/2019 17:00:16","orga@fffminden.de","Enno Neuhaus",,,"Germany","Minden","Kleiner Domhof","11:30","2019-03-15","Once only","https://www.instagram.com/fridaysforfutureminden/"
"3/7/2019 17:25:43","spangejul@gmail.com","Julian Zabel",,,"Germany","Mühlhausen","Blobach","At 14.00 - 16.30","2019-03-15","Monthly","https://www.facebook.com/events/1946681188787012/"
"3/7/2019 18:43:18","j.kilgus@gmx.de","Janne Kilgus",,,"Germany","Lennestadt","In front of townhall","7:40-9:10 am","2019-03-15","Once only",
"3/7/2019 23:32:34","danielsieben@posteo.de","Daniel Sieben",,"Engaged Banker & Meditator","Germany","Frankfurt","Taunusanlage (Financial District)","at 12:15 and 13:00","2019-03-15","Every Friday","http://www.frankfurter-frühling.de"
"3/8/2019 10:05:04","fffmarktredwitz@outlook.com","Klimaaktivisten",,,"Germany","Marktredwitz","In front of the Otto-Hahn-Gymnasium (Schulstraße 10)",14,"2019-03-15","Once only","https://instagram.com/fridaysforfuture_marktredwitz?utm_source=ig_profile_share&igshid=nx7wpapzbdt2"
"3/8/2019 10:35:38","ksukram@aol.com","Markus Koch",,,"Germany","Winnenden","Marktplatz","Starting 11.00 (open End)","2019-03-15","Once only","https://www.facebook.com/events/621085595010048/"
"3/8/2019 23:28:19","luca.salis@web.de","Luca Salis",,,"Germany","Hamburg","Hachmannplatz","2:30 PM","2019-03-15","Once only",
"4/16/2019 12:49:34","olivia.lambert@lyceeadk.com","Olivia",,,"Germany","Würzburg",,,"2019-03-15","","https://www.instagram.com/p/BvFnZDSnHmJ/"
"4/27/2019 10:48:12","mick199@gmx.de","Michel Köhler",,,"Germany","Hanover",,,"2019-03-15",,
"3/16/2019 19:53:41","ganusch@gmail.com","Joachim Nusch",,,"Germany","Bedburg",,,"2019-03-16",,
"3/10/2019 13:50:09","jens@thomson-online.de","Jens Thomson",,,"Germany","Eberbach","Leopoldsplatz","11.00-12.30","2019-03-18","Every Friday",
"3/15/2019 15:01:20","Billybobjoe@gmail.com","I didn't mean to submit this",,,"Germany","Bonn",,,"2019-03-19",,
"3/19/2019 22:07:28","joel.arbatschat@web.de","Joel Arbatschat",,,"Germany","Cuxhaven","Buttplatz","9.30-12.30","2019-03-22","Once only",
"3/21/2019 15:25:50","antonia.messerschmitt@posteo.de","Antonia Messerschmitt",,,"Germany","Munich","Marienplatz","11:00","2019-03-22","Every Friday",
10002901,"Nicolas Haeringer","Janine OKeeffe",,,"Germany","Berlin",,,"2019-03-29","Once only",
"4/2/2019 11:41:25","fridaysforfuture.krefeld@gmail.com","Annika",,,"Germany","Krefeld","Neumarkt","16.3","2019-04-05","Weekly",
"4/10/2019 18:48:53","enno.neuhaus@t-online.de","Enno Neuhaus",,,"Germany","Minden","Schlagde","11:30","2019-04-12","Once only","https://www.instagram.com/fridaysforfutureminden/"
"4/11/2019 20:46:08","fridaysforfuture.krefeld@gmail.com","Annika",,,"Germany","Krefeld","HBF",15,"2019-04-12","Weekly",
"4/12/2019 16:45:36","fridaysforfuture.krefeld@gmail.com","Annika",,,"Germany","Krefeld",,,"2019-04-12",,
"4/12/2019 22:14:00","thies@wandschneider.de","Thies Wandschneider",,,"Germany","Bad Segeberg",,,"2019-04-12",,
"4/13/2019 12:15:01","reinis.uscins2005@googlemail.com","Reinis Uščins",,,"Germany","Dessau, Dessau-Roßlau",,,"2019-04-12",,
"4/19/2019 10:49:13","f4ftraunstein@gmail.com","Tobias Kohler",,,"Germany","Traunstein",,,"2019-04-12",,
"4/5/2019 16:08:48","seligenstadt@fridaysforfuture.de","Maike",,,"Germany","Seligenstadt","Marktplatz","10:30-12:30","2019-04-12","Once only","https://chat.whatsapp.com/HSATkeogtToKWm86l9dOgT"
"4/8/2019 21:54:05","aziza.ernst@t-online.de","Aziza Ernst",,,"Germany","Amberg",,,"2019-04-12","","https://m.facebook.com/story.php?story_fbid=1034275373428319&id=1020797984776058"
"4/9/2019 16:29:10","leonard.hoehn@t-online.de","Leonard Höhn",,,"Germany","Künzelsau","in front of old townhall","13.00-15.00","2019-04-12","Once only",
"3/13/2019 10:57:38","anna.a.f.feltens@isdedu.de","Anna Feltens",,,"Germany","Düsseldorf","In front of townhall","At 12.00-13.00 (noon to 1pm)","2019-04-15","Once only",
"4/9/2019 12:32:05","thies@wandschneider.de","Thies Wandschneider",,,"Germany","Bad Segeberg","Marktplatz","15.00-17.00","2019-04-20","Once only","https://www.instagram.com/fridaysforfuture_se"
"4/16/2019 9:26:14","fridaysforfuture.krefeld@gmail.com","Annika",,,"Germany","Krefeld","HBF","11.00-14.00","2019-04-26","Weekly","https://www.facebook.com/events/2374939882790300/?ti=ia"
"4/23/2019 23:00:01","wuerzburg@fridaysforfuture.de","Lorenz Buß",,,"Germany","Würzburg","Hauptbahnhof Central Station","11 am or 2 pm (11:30 oder 14:00) check https://fridaysforfuture.de/streiktermine/ for details","2019-04-26","Every two weeks - check https://fridaysforfuture.de/streiktermine/ for details","https://fridaysforfuture.de/streiktermine/"
"4/24/2019 9:38:34","abbyrobertson15@hotmail.com","Abby Robertson",,,"Germany","Cologne","In front of townhall","At 12.00-13.00 (noon to 1pm)","2019-04-26","Monthly",
"4/25/2019 9:29:21","lol@gmail.com","Anonym",,"----","Germany","Karlsruhe","Kronenplatz","11am","2019-04-26","Monthly","https://fffka.de"
"4/29/2019 13:38:23","peter@schlesselmanns.de","Peter Schleßelmann",,"Make the World GRETA","Germany","Stade","STADEUM, Stade","11:00","2019-05-01","Once only",
"4/12/2019 1:01:27","xdebbie@web.de","xdebbie@web.de",,,"Germany","Neumarkt in der Oberpfalz","In front of townhall","At 12.00-13.00 (noon to 1pm)","2019-05-24","Every Friday",
"4/18/2019 18:03:11","aziza.ernst@t-online.de","Aziza Ernst",,,"Germany","Amberg","Maltesergarten",14,"2019-05-24","Monthly","https://www.facebook.com/events/2034825356823121/?ti=cl"
"4/25/2019 19:17:48","luiza_heesen@web.de","L",,,"Germany","Essen","I don't know...","Climate doesn't have an hour ","2019-05-24","Every Friday",
"Timestamp","Email Address","Your name","Phone","Notes (optional)","Country","Town","Address","Time","Date","Frequency","Link to event (URL), e.g. Facebook, Instagram, Twitter, web"
